Mean,Variance,Dispersion,Perfect Matches,Accuracy
21.5177889323,2.0715420826,0.0962711405485,449921,0.429078102112
21.0055439209,1.21324212198,0.0577581864366,648061,0.618039131165
12.3588354028,4.53713800051,0.367116953388,233330,0.222520828247
7.69349722699,3.21765817327,0.418230887506,315159,0.300559043884
16.7513023721,4.67356155747,0.278996907445,227003,0.216486930847
21.1276053574,4.73734576982,0.224225400356,224466,0.214067459106
18.0923799377,3.03089260905,0.167523157235,332137,0.316750526428
14.9441975091,2.62580393999,0.175707256171,372621,0.355359077454
17.7004268663,3.20920989849,0.181306921168,315546,0.300928115845
11.1184617736,1.00764809646,0.0906283726097,716847,0.683638572693
14.1247699165,4.97927857227,0.352521039402,214282,0.204355239868
7.69606564976,0.307414526024,0.0399443741795,952433,0.908310890198
10.9891009578,1.6534906467,0.150466416957,530658,0.506074905396
16.341095095,2.26574824414,0.13865339079,420183,0.400717735291
9.42028111541,4.06881097987,0.4319203355,256434,0.244554519653
13.9578198875,0.900946582037,0.0645478011106,758322,0.723192214966
11.6461612745,3.65745144905,0.314047810506,281767,0.268713951111
20.2471849931,3.60426723505,0.178013251535,286152,0.272895812988
9.07215115525,2.68916312179,0.296419567506,366654,0.349668502808
20.800098169,0.957257480202,0.0460217770332,736073,0.7019739151
23.7559792929,1.7457550945,0.0734869766039,512031,0.488310813904
23.2034733973,1.69209709687,0.0729243018016,522003,0.497820854187
24.5939278822,1.60151567922,0.0651183368064,543939,0.518740653992
20.6390398256,0.723349106989,0.0350476142835,825886,0.787626266479
18.0663448925,4.59280949931,0.254219075671,230079,0.219420433044
